download a github release asset to the stow R user directory — stow_gh_release • dpkg
…
    Examples

# get by using URL
stow("https://github.com/geomarker-io/appc/releases/download/v0.1.0/nei_2020.rds")
#> /home/runner/.local/share/R/stow/nei_2020.rds

# will be faster (even in later R sessions) next time
stow("https://github.com/geomarker-io/appc/releases/download/v0.1.0/nei_2020.rds") |>
  readRDS()
#> # A tibble: 369,063 × 4
#>    pollutant_code total_emissions emissions_uom s2            
#>    <chr>                    <dbl> <chr>         <s2_cell>     
#>  1 EC                  0.00137    TON           -3.419770e-306
#>  2 NO3                 0          TON           -3.419770e-306
#>  3 OC                  0.0317     TON           -3.419770e-306
#>  4 PM25-PRI            0.782      TON           -3.419770e-306
#>  5 PMFINE              0.746      TON           -3.419770e-306
#>  6 SO4                 0.00278    TON           -3.419770e-306
#>  7 EC                  0.0000182  TON           -3.355024e-306
#>  8 NO3                 0.00000638 TON           -3.355024e-306
#>  9 OC                  0.000129   TON           -3.355024e-306
#> 10 PM25-PRI            0.0007     TON           -3.355024e-306
#> # ℹ 369,053 more rows

# get a data package parquet file created with dpkg_gh_release()
stow("gh://cole-brokamp/dpkg/cagis_parcels-v0.1.0") |>
  read_dpkg()
#> # [☰] cagis_parcels v0.1.0
#> # ℹ Use `dpkg_meta() to get all metadata
#> # A tibble: 259,710 × 9
#>    parcel_id     parcel_address  land_use condo_id condo_unit market_total_value
#>    <chr>         <chr>           <fct>    <chr>    <chr>                   <dbl>
#>  1 6210023015500 184 CANNONADE … single … NA       NA                     275000
#>  2 6210023017000 154 THOROBRED … single … NA       NA                     264540
#>  3 6210023017700 112 CITATION CT single … NA       NA                     250760
#>  4 6210023018100 119 CITATION CT single … NA       NA                     268670
#>  5 6210023018500 112 THOROBRED … single … NA       NA                     238900
#>  6 6210023020300 242 CORDERO TL  single … NA       NA                     279710
#>  7 6210023020500 254 CORDERO TL  single … NA       NA                     258150
#>  8 6210023022800 212 RIVA RIDGE… single … NA       NA                     261670
#>  9 6210023023100 230 RIVA RIDGE… single … NA       NA                     256910
#> 10 6210023023300 242 RIVA RIDGE… single … NA       NA                     263870
#> # ℹ 259,700 more rows
#> # ℹ 3 more variables: acreage <dbl>, homestead <lgl>, rental_registration <lgl>
…
